Working with HDFS
…
flightsHd
#> RxXdfData Source
#> "/user/sshuser/flights"
#> fileSystem: 
#>     fileSystemType: hdfs
#>     hostName: default
#>     port: 0
#>     useWebHdfs: FALSE
#>     verbose: FALSE
#> createCompositeSet: TRUE

as_data_frame(flightsHd)
#> # A tibble: 336,776 x 19
#>    year month   day dep_time sched_dep_time dep_delay arr_time
#>   <int> <int> <int>    <int>          <int>     <dbl>    <int>
#> 1  2013     1     1      517            515         2      830
#> 2  2013     1     1      533            529         4      850
#> 3  2013     1     1      542            540         2      923
#> 4  2013     1     1      544            545        -1     1004
#> 5  2013     1     1      554            600        -6      812
#> # ... with 336,771 more rows, and 12 more variables: sched_arr_time <int>,
#> #   arr_delay <dbl>, carrier <chr>, flight <int>, tailnum <chr>,
#> #   origin <chr>, dest <chr>, air_time <dbl>, distance <dbl>, hour <dbl>,
#> #   minute <dbl>, time_hour <dttm>
…
To download an Xdf file from HDFS to the native filesystem, use collect and compute. Again, these are the standard dplyr verbs for copying data from a remote src. For dplyrXdf, the difference between collect and compute is that the former by default will return a data frame, whereas the latter will save the copied data in an Xdf file and return a tbl_xdf object pointing to that file.

flightsLocal <- compute(flightsHd)

flightsLocal
#> tbl_xdf Source
#> "d:\misc\Rtemp\RtmpSkVJ1w\dxTmp604c17161afc/flights"
#> fileSystem: 
#>     fileSystemType: native
#> createCompositeSet: TRUE

as_data_frame(flightsLocal)
#> # A tibble: 336,776 x 19
#>    year month   day dep_time sched_dep_time dep_delay arr_time
#>   <int> <int> <int>    <int>          <int>     <dbl>    <int>
#> 1  2013     1     1      517            515         2      830
#> 2  2013     1     1      533            529         4      850
#> 3  2013     1     1      542            540         2      923
#> 4  2013     1     1      544            545        -1     1004
#> 5  2013     1     1      554            600        -6      812
#> # ... with 336,771 more rows, and 12 more variables: sched_arr_time <int>,
#> #   arr_delay <dbl>, carrier <chr>, flight <int>, tailnum <chr>,
#> #   origin <chr>, dest <chr>, air_time <dbl>, distance <dbl>, hour <dbl>,
#> #   minute <dbl>, time_hour <dttm>
…
copy_to, collect and compute are for copying datasets (R objects, including data frames and Xdf files) to and from HDFS. To transfer arbitrary files and directories, dplyrXdf also provides the hdfs_upload and hdfs_download functions. If you’ve used the base R function download.file or a command-line file transfer utility like ftp or pscp, the syntax should be familiar: hdfs_download(src, dest) downloads the file at src to the location dest, while hdfs_upload(src, dest) uploads src to dest.

# create a csv file and upload it
write.csv(flights, "flights.csv", row.names=FALSE)
hdfs_upload("flights.csv", "/tmp")
#> [1] TRUE

If you uploaded a non-Xdf data source (like a csv file), you can then import it into Xdf format with as_xdf:

flightsCsv <- RxTextData("/tmp/flights.csv", fileSystem=RxHdfsFileSystem())
flightsHd2 <- as_xdf(flightsCsv, file="flights2")

as_data_frame(flightsHd2)
#> # A tibble: 336,776 x 19
#>    year month   day dep_time sched_dep_time dep_delay arr_time
#>   <int> <int> <int>    <int>          <int>     <int>    <int>
#> 1  2013     1     1      517            515         2      830
#> 2  2013     1     1      533            529         4      850
#> 3  2013     1     1      542            540         2      923
#> 4  2013     1     1      544            545        -1     1004
#> 5  2013     1     1      554            600        -6      812
#> # ... with 336,771 more rows, and 12 more variables: sched_arr_time <int>,
#> #   arr_delay <int>, carrier <chr>, flight <int>, tailnum <chr>,
#> #   origin <chr>, dest <chr>, air_time <int>, distance <int>, hour <int>,
#> #   minute <int>, time_hour <chr>
…
