Using the dplyrXdf package
…
The subset verb

In dplyr, subsetting data is handled by two verbs: filter for subsetting by rows, and select for subsetting by columns. This is fine for data frames, where everything runs in memory, and for SQL databases, where the hard work is done by the database. For Xdf files, however, this is suboptimal, as each verb translates into a separate I/O step where the data is read from disk, subsetted, then written out again. This can waste a lot of time with large datasets.

As it turns out, base R has a subset generic which (as the name says) performs subsetting on both rows and columns. You’ve probably used it with data frames:

subset(flights, month <= 6 & day == 1, c(dep_time, dep_delay, carrier))
#> # A tibble: 5,414 x 3
#>   dep_time dep_delay carrier
#>      <int>     <dbl>   <chr>
#> 1      517         2      UA
#> 2      533         4      UA
#> 3      542         2      AA
#> 4      544        -1      B6
#> 5      554        -6      DL
#> # ... with 5,409 more rows
…
